{
"profiles": {
  "FailWhip": {
    "name": "FailWhip"
  },
  "Forge 1.8.9": {
    "name": "Forge 1.8.9",
    "lastVersionId": "1.8.9-forge1.8.9-11.15.1.1722",
    "javaArgs": "-Xmx2G -XX:+UseConcMarkSweepGC -XX:+CMSIncrementalMode -XX:-UseAdaptiveSizePolicy -Xmn128M",
    "useHopperCrashService": false,
    "launcherVisibilityOnGameClose": "keep the launcher open"
  },
  "Forge 1.7.10 CREATIVE MODE": {
    "name": "Forge 1.7.10 CREATIVE MODE",
    "lastVersionId": "1.7.10-Forge10.13.3.1395-1710ls",
    "javaArgs": "-Xmx3G -XX:+UseConcMarkSweepGC -XX:+CMSIncrementalMode -XX:-UseAdaptiveSizePolicy -Xmn128M",
    "launcherVisibilityOnGameClose": "keep the launcher open"
  },
  "forge 1.8.0": {
    "name": "forge 1.8.0",
    "lastVersionId": "1.8-forge1.8-11.14.4.1563",
    "javaArgs": "-Xmx4G -XX:+UseConcMarkSweepGC -XX:+CMSIncrementalMode -XX:-UseAdaptiveSizePolicy -Xmn128M",
    "launcherVisibilityOnGameClose": "keep the launcher open"
  },
  "1.8-ShadersMod": {
    "name": "1.8-ShadersMod",
    "lastVersionId": "1.8-OptiFine_HD_U_D1-ShadersMod2.4.9",
    "javaArgs": "-Xmx2G -XX:+UseConcMarkSweepGC -XX:+CMSIncrementalMode -XX:-UseAdaptiveSizePolicy -Xmn128M",
    "useHopperCrashService": false,
    "launcherVisibilityOnGameClose": "keep the launcher open"
  },
  "Forge": {
    "name": "Forge",
    "lastVersionId": "1.8-Forge11.14.1.1313"
  },
  "LiteLoader 1.7.10": {
    "name": "LiteLoader 1.7.10",
    "lastVersionId": "1.7.10-LiteLoader1.7.10",
    "javaArgs": "-Xmx1G",
    "useHopperCrashService": false
  },
  "LiteLoader 1.7.10 with Forge 10.13.3.1395": {
    "name": "LiteLoader 1.7.10 with Forge 10.13.3.1395",
    "lastVersionId": "1.7.10-LiteLoader1.7.10-1.7.10-Forge10.13.3.1395-1710ls",
    "javaArgs": "-Xmx1G",
    "useHopperCrashService": false,
    "launcherVisibilityOnGameClose": "keep the launcher open"
  },
  "forge": {
    "name": "forge",
    "lastVersionId": "1.8.9-forge1.8.9-11.15.1.1722"
  },
  "Optifine 1.8": {
    "name": "Optifine 1.8",
    "lastVersionId": "1.8-OptiFine_HD_U_D1",
    "launcherVisibilityOnGameClose": "keep the launcher open"
  },
  "ConquestModPack": {
    "name": "ConquestModPack",
    "lastVersionId": "1.7.10-Forge10.13.4.1614-1.7.10",
    "javaArgs": "-Xmx4G -XX:+UseConcMarkSweepGC -XX:+CMSIncrementalMode -XX:-UseAdaptiveSizePolicy -Xmn512M"
  }
},
"selectedProfile": "Conquest 1.8 MOD",
"clientToken": "8cb0a000-05d1-4ab4-9467-a7a57392f284",
"authenticationDatabase": {
  "ca2eb47eef664f6391e0939b76047f27": {
    "displayName": "fWhipCraft",
    "userProperties": [
      {
        "name": "twitch_access_token",
        "value": "3qndyyq8vdx7sa16majtl5rsauagit"
      }
    ],
    "accessToken": "620b26fb45104a849a675a0ee5ed2094",
    "userid": "05c8a03524090f62c69c31042e99d5cb",
    "uuid": "ca2eb47e-ef66-4f63-91e0-939b76047f27",
    "username": "bmooney35@gmail.com"
  }
},
"selectedUser": "ca2eb47eef664f6391e0939b76047f27",
"launcherVersion": {
  "name": "1.6.61",
  "format": 18
}
}
